module go-gpt

go 1.21.3

require (
	github.com/bwmarrin/discordgo v0.27.1 // indirect
	github.com/gorilla/websocket v1.4.2 // indirect
	github.com/pelletier/go-toml/v2 v2.1.1 // indirect
	golang.org/x/crypto v0.0.0-20210421170649-83a5a9bb288b // indirect
	golang.org/x/sys v0.0.0-20201119102817-f84b799fce68 // indirect
)
